[gd_scene load_steps=7 format=2]

[ext_resource path="res://demo/scenes/other/Workshop.tscn" type="PackedScene" id=1]
[ext_resource path="res://BoxRoom.gd" type="Script" id=2]
[ext_resource path="res://goat/main_scenes/Player.tscn" type="PackedScene" id=3]
[ext_resource path="res://EmptyRoom.tscn" type="PackedScene" id=4]

[sub_resource type="Animation" id=1]
resource_name = "end_game"
length = 6.0
tracks/0/type = "value"
tracks/0/path = NodePath("Blinder:color")
tracks/0/interp = 1
tracks/0/loop_wrap = true
tracks/0/imported = false
tracks/0/enabled = true
tracks/0/keys = {
"times": PoolRealArray( 0, 6 ),
"transitions": PoolRealArray( 1, 1 ),
"update": 0,
"values": [ Color( 1, 1, 1, 0 ), Color( 1, 1, 1, 1 ) ]
}

[sub_resource type="Animation" id=2]
length = 8.0
tracks/0/type = "value"
tracks/0/path = NodePath("Blinder:color")
tracks/0/interp = 1
tracks/0/loop_wrap = true
tracks/0/imported = false
tracks/0/enabled = true
tracks/0/keys = {
"times": PoolRealArray( 0, 8 ),
"transitions": PoolRealArray( 1, 1 ),
"update": 0,
"values": [ Color( 0, 0, 0, 1 ), Color( 0, 0, 0, 0 ) ]
}

[node name="BoxRoom" type="Spatial"]
script = ExtResource( 2 )

[node name="Blinder" type="ColorRect" parent="."]
anchor_right = 1.0
anchor_bottom = 1.0
mouse_filter = 2
color = Color( 0, 0, 0, 1 )
__meta__ = {
"_edit_use_anchors_": false
}

[node name="Player" parent="." instance=ExtResource( 3 )]
transform = Transform( -4.37114e-08, 0, 1, 0, 1, 0, -1, 0, -4.37114e-08, 3, 0, 0 )

[node name="Workshop" parent="." instance=ExtResource( 1 )]
visible = false

[node name="AnimationPlayer" type="AnimationPlayer" parent="."]
anims/end_game = SubResource( 1 )
anims/start_game = SubResource( 2 )

[node name="EmptyRoom" parent="." instance=ExtResource( 4 )]
